^D:\SWINBURNE\SEMESTER4\GAMES_PROGRAMMING\MYFOLDER\WEEK1\SPIKE1\SIMPLE GAME LOOP\SIMPLE GAME LOOP\GAMEOBJECT.CPP|D:\SWINBURNE\SEMESTER4\GAMES_PROGRAMMING\MYFOLDER\WEEK1\SPIKE1\SIMPLE GAME LOOP\SIMPLE GAME LOOP\GOLD.CPP|D:\SWINBURNE\SEMESTER4\GAMES_PROGRAMMING\MYFOLDER\WEEK1\SPIKE1\SIMPLE GAME LOOP\SIMPLE GAME LOOP\GRIDWORLD.CPP|D:\SWINBURNE\SEMESTER4\GAMES_PROGRAMMING\MYFOLDER\WEEK1\SPIKE1\SIMPLE GAME LOOP\SIMPLE GAME LOOP\HERO.CPP|D:\SWINBURNE\SEMESTER4\GAMES_PROGRAMMING\MYFOLDER\WEEK1\SPIKE1\SIMPLE GAME LOOP\SIMPLE GAME LOOP\MAIN.CPP|D:\SWINBURNE\SEMESTER4\GAMES_PROGRAMMING\MYFOLDER\WEEK1\SPIKE1\SIMPLE GAME LOOP\SIMPLE GAME LOOP\TRAP.CPP
D:\SWINBURNE\SEMESTER4\GAMES_PROGRAMMING\MYFOLDER\WEEK1\SPIKE1\SIMPLE GAME LOOP\SIMPLE GAME LOOP\DEBUG\VC140.PDB
D:\SWINBURNE\SEMESTER4\GAMES_PROGRAMMING\MYFOLDER\WEEK1\SPIKE1\SIMPLE GAME LOOP\SIMPLE GAME LOOP\DEBUG\VC140.IDB
D:\SWINBURNE\SEMESTER4\GAMES_PROGRAMMING\MYFOLDER\WEEK1\SPIKE1\SIMPLE GAME LOOP\SIMPLE GAME LOOP\DEBUG\GAMEOBJECT.OBJ
D:\SWINBURNE\SEMESTER4\GAMES_PROGRAMMING\MYFOLDER\WEEK1\SPIKE1\SIMPLE GAME LOOP\SIMPLE GAME LOOP\DEBUG\GOLD.OBJ
D:\SWINBURNE\SEMESTER4\GAMES_PROGRAMMING\MYFOLDER\WEEK1\SPIKE1\SIMPLE GAME LOOP\SIMPLE GAME LOOP\DEBUG\GRIDWORLD.OBJ
D:\SWINBURNE\SEMESTER4\GAMES_PROGRAMMING\MYFOLDER\WEEK1\SPIKE1\SIMPLE GAME LOOP\SIMPLE GAME LOOP\DEBUG\HERO.OBJ
D:\SWINBURNE\SEMESTER4\GAMES_PROGRAMMING\MYFOLDER\WEEK1\SPIKE1\SIMPLE GAME LOOP\SIMPLE GAME LOOP\DEBUG\MAIN.OBJ
D:\SWINBURNE\SEMESTER4\GAMES_PROGRAMMING\MYFOLDER\WEEK1\SPIKE1\SIMPLE GAME LOOP\SIMPLE GAME LOOP\DEBUG\TRAP.OBJ
^D:\SWINBURNE\SEMESTER4\GAMES_PROGRAMMING\MYFOLDER\WEEK1\SPIKE1\SIMPLE GAME LOOP\SIMPLE GAME LOOP\GAMEOBJECT.CPP
D:\SWINBURNE\SEMESTER4\GAMES_PROGRAMMING\MYFOLDER\WEEK1\SPIKE1\SIMPLE GAME LOOP\SIMPLE GAME LOOP\DEBUG\VC140.PDB
^D:\SWINBURNE\SEMESTER4\GAMES_PROGRAMMING\MYFOLDER\WEEK1\SPIKE1\SIMPLE GAME LOOP\SIMPLE GAME LOOP\GOLD.CPP
D:\SWINBURNE\SEMESTER4\GAMES_PROGRAMMING\MYFOLDER\WEEK1\SPIKE1\SIMPLE GAME LOOP\SIMPLE GAME LOOP\DEBUG\VC140.PDB
^D:\SWINBURNE\SEMESTER4\GAMES_PROGRAMMING\MYFOLDER\WEEK1\SPIKE1\SIMPLE GAME LOOP\SIMPLE GAME LOOP\GRIDWORLD.CPP
D:\SWINBURNE\SEMESTER4\GAMES_PROGRAMMING\MYFOLDER\WEEK1\SPIKE1\SIMPLE GAME LOOP\SIMPLE GAME LOOP\DEBUG\VC140.PDB
D:\SWINBURNE\SEMESTER4\GAMES_PROGRAMMING\MYFOLDER\WEEK1\SPIKE1\SIMPLE GAME LOOP\SIMPLE GAME LOOP\DEBUG\VC140.IDB
D:\SWINBURNE\SEMESTER4\GAMES_PROGRAMMING\MYFOLDER\WEEK1\SPIKE1\SIMPLE GAME LOOP\SIMPLE GAME LOOP\DEBUG\GRIDWORLD.OBJ
^D:\SWINBURNE\SEMESTER4\GAMES_PROGRAMMING\MYFOLDER\WEEK1\SPIKE1\SIMPLE GAME LOOP\SIMPLE GAME LOOP\HERO.CPP
D:\SWINBURNE\SEMESTER4\GAMES_PROGRAMMING\MYFOLDER\WEEK1\SPIKE1\SIMPLE GAME LOOP\SIMPLE GAME LOOP\DEBUG\VC140.PDB
^D:\SWINBURNE\SEMESTER4\GAMES_PROGRAMMING\MYFOLDER\WEEK1\SPIKE1\SIMPLE GAME LOOP\SIMPLE GAME LOOP\MAIN.CPP
D:\SWINBURNE\SEMESTER4\GAMES_PROGRAMMING\MYFOLDER\WEEK1\SPIKE1\SIMPLE GAME LOOP\SIMPLE GAME LOOP\DEBUG\VC140.PDB
^D:\SWINBURNE\SEMESTER4\GAMES_PROGRAMMING\MYFOLDER\WEEK1\SPIKE1\SIMPLE GAME LOOP\SIMPLE GAME LOOP\TRAP.CPP
D:\SWINBURNE\SEMESTER4\GAMES_PROGRAMMING\MYFOLDER\WEEK1\SPIKE1\SIMPLE GAME LOOP\SIMPLE GAME LOOP\DEBUG\VC140.PDB
^D:\SWINBURNE\SEMESTER4\GAMES_PROGRAMMING\MYFOLDER\WEEK1\SPIKE1\SIMPLE GAME LOOP\SIMPLE GAME LOOP\GRIDWORLD.CPP|D:\SWINBURNE\SEMESTER4\GAMES_PROGRAMMING\MYFOLDER\WEEK1\SPIKE1\SIMPLE GAME LOOP\SIMPLE GAME LOOP\MAIN.CPP
D:\SWINBURNE\SEMESTER4\GAMES_PROGRAMMING\MYFOLDER\WEEK1\SPIKE1\SIMPLE GAME LOOP\SIMPLE GAME LOOP\DEBUG\VC140.PDB
D:\SWINBURNE\SEMESTER4\GAMES_PROGRAMMING\MYFOLDER\WEEK1\SPIKE1\SIMPLE GAME LOOP\SIMPLE GAME LOOP\DEBUG\VC140.IDB
D:\SWINBURNE\SEMESTER4\GAMES_PROGRAMMING\MYFOLDER\WEEK1\SPIKE1\SIMPLE GAME LOOP\SIMPLE GAME LOOP\DEBUG\GRIDWORLD.OBJ
^D:\SWINBURNE\SEMESTER4\GAMES_PROGRAMMING\MYFOLDER\WEEK1\SPIKE4\SIMPLE GAME LOOP\SIMPLE GAME LOOP\GAMEOBJECT.CPP|D:\SWINBURNE\SEMESTER4\GAMES_PROGRAMMING\MYFOLDER\WEEK1\SPIKE4\SIMPLE GAME LOOP\SIMPLE GAME LOOP\GOLD.CPP|D:\SWINBURNE\SEMESTER4\GAMES_PROGRAMMING\MYFOLDER\WEEK1\SPIKE4\SIMPLE GAME LOOP\SIMPLE GAME LOOP\GRIDWORLD.CPP|D:\SWINBURNE\SEMESTER4\GAMES_PROGRAMMING\MYFOLDER\WEEK1\SPIKE4\SIMPLE GAME LOOP\SIMPLE GAME LOOP\HERO.CPP|D:\SWINBURNE\SEMESTER4\GAMES_PROGRAMMING\MYFOLDER\WEEK1\SPIKE4\SIMPLE GAME LOOP\SIMPLE GAME LOOP\MAIN.CPP|D:\SWINBURNE\SEMESTER4\GAMES_PROGRAMMING\MYFOLDER\WEEK1\SPIKE4\SIMPLE GAME LOOP\SIMPLE GAME LOOP\TRAP.CPP
D:\SWINBURNE\SEMESTER4\GAMES_PROGRAMMING\MYFOLDER\WEEK1\SPIKE4\SIMPLE GAME LOOP\SIMPLE GAME LOOP\DEBUG\VC140.PDB
D:\SWINBURNE\SEMESTER4\GAMES_PROGRAMMING\MYFOLDER\WEEK1\SPIKE4\SIMPLE GAME LOOP\SIMPLE GAME LOOP\DEBUG\VC140.IDB
D:\SWINBURNE\SEMESTER4\GAMES_PROGRAMMING\MYFOLDER\WEEK1\SPIKE4\SIMPLE GAME LOOP\SIMPLE GAME LOOP\DEBUG\GAMEOBJECT.OBJ
D:\SWINBURNE\SEMESTER4\GAMES_PROGRAMMING\MYFOLDER\WEEK1\SPIKE4\SIMPLE GAME LOOP\SIMPLE GAME LOOP\DEBUG\GOLD.OBJ
D:\SWINBURNE\SEMESTER4\GAMES_PROGRAMMING\MYFOLDER\WEEK1\SPIKE4\SIMPLE GAME LOOP\SIMPLE GAME LOOP\DEBUG\GRIDWORLD.OBJ
D:\SWINBURNE\SEMESTER4\GAMES_PROGRAMMING\MYFOLDER\WEEK1\SPIKE4\SIMPLE GAME LOOP\SIMPLE GAME LOOP\DEBUG\HERO.OBJ
D:\SWINBURNE\SEMESTER4\GAMES_PROGRAMMING\MYFOLDER\WEEK1\SPIKE4\SIMPLE GAME LOOP\SIMPLE GAME LOOP\DEBUG\MAIN.OBJ
D:\SWINBURNE\SEMESTER4\GAMES_PROGRAMMING\MYFOLDER\WEEK1\SPIKE4\SIMPLE GAME LOOP\SIMPLE GAME LOOP\DEBUG\TRAP.OBJ
^D:\SWINBURNE\SEMESTER4\GAMES_PROGRAMMING\MYFOLDER\WEEK1\SPIKE4\SIMPLE GAME LOOP\SIMPLE GAME LOOP\GAMEOBJECT.CPP
D:\SWINBURNE\SEMESTER4\GAMES_PROGRAMMING\MYFOLDER\WEEK1\SPIKE4\SIMPLE GAME LOOP\SIMPLE GAME LOOP\DEBUG\VC140.PDB
^D:\SWINBURNE\SEMESTER4\GAMES_PROGRAMMING\MYFOLDER\WEEK1\SPIKE4\SIMPLE GAME LOOP\SIMPLE GAME LOOP\GOLD.CPP
D:\SWINBURNE\SEMESTER4\GAMES_PROGRAMMING\MYFOLDER\WEEK1\SPIKE4\SIMPLE GAME LOOP\SIMPLE GAME LOOP\DEBUG\VC140.PDB
^D:\SWINBURNE\SEMESTER4\GAMES_PROGRAMMING\MYFOLDER\WEEK1\SPIKE4\SIMPLE GAME LOOP\SIMPLE GAME LOOP\GRIDWORLD.CPP
D:\SWINBURNE\SEMESTER4\GAMES_PROGRAMMING\MYFOLDER\WEEK1\SPIKE4\SIMPLE GAME LOOP\SIMPLE GAME LOOP\DEBUG\VC140.PDB
D:\SWINBURNE\SEMESTER4\GAMES_PROGRAMMING\MYFOLDER\WEEK1\SPIKE4\SIMPLE GAME LOOP\SIMPLE GAME LOOP\DEBUG\VC140.IDB
D:\SWINBURNE\SEMESTER4\GAMES_PROGRAMMING\MYFOLDER\WEEK1\SPIKE4\SIMPLE GAME LOOP\SIMPLE GAME LOOP\DEBUG\GRIDWORLD.OBJ
^D:\SWINBURNE\SEMESTER4\GAMES_PROGRAMMING\MYFOLDER\WEEK1\SPIKE4\SIMPLE GAME LOOP\SIMPLE GAME LOOP\HERO.CPP
D:\SWINBURNE\SEMESTER4\GAMES_PROGRAMMING\MYFOLDER\WEEK1\SPIKE4\SIMPLE GAME LOOP\SIMPLE GAME LOOP\DEBUG\VC140.PDB
^D:\SWINBURNE\SEMESTER4\GAMES_PROGRAMMING\MYFOLDER\WEEK1\SPIKE4\SIMPLE GAME LOOP\SIMPLE GAME LOOP\MAIN.CPP
D:\SWINBURNE\SEMESTER4\GAMES_PROGRAMMING\MYFOLDER\WEEK1\SPIKE4\SIMPLE GAME LOOP\SIMPLE GAME LOOP\DEBUG\VC140.PDB
D:\SWINBURNE\SEMESTER4\GAMES_PROGRAMMING\MYFOLDER\WEEK1\SPIKE4\SIMPLE GAME LOOP\SIMPLE GAME LOOP\DEBUG\VC140.IDB
D:\SWINBURNE\SEMESTER4\GAMES_PROGRAMMING\MYFOLDER\WEEK1\SPIKE4\SIMPLE GAME LOOP\SIMPLE GAME LOOP\DEBUG\MAIN.OBJ
^D:\SWINBURNE\SEMESTER4\GAMES_PROGRAMMING\MYFOLDER\WEEK1\SPIKE4\SIMPLE GAME LOOP\SIMPLE GAME LOOP\TRAP.CPP
D:\SWINBURNE\SEMESTER4\GAMES_PROGRAMMING\MYFOLDER\WEEK1\SPIKE4\SIMPLE GAME LOOP\SIMPLE GAME LOOP\DEBUG\VC140.PDB
^D:\SWINBURNE\SEMESTER4\GAMES_PROGRAMMING\MYFOLDER\WEEK1\SPIKE4\SIMPLE GAME LOOP\SIMPLE GAME LOOP\GRIDWORLD.CPP|D:\SWINBURNE\SEMESTER4\GAMES_PROGRAMMING\MYFOLDER\WEEK1\SPIKE4\SIMPLE GAME LOOP\SIMPLE GAME LOOP\MAIN.CPP
D:\SWINBURNE\SEMESTER4\GAMES_PROGRAMMING\MYFOLDER\WEEK1\SPIKE4\SIMPLE GAME LOOP\SIMPLE GAME LOOP\DEBUG\VC140.PDB
D:\SWINBURNE\SEMESTER4\GAMES_PROGRAMMING\MYFOLDER\WEEK1\SPIKE4\SIMPLE GAME LOOP\SIMPLE GAME LOOP\DEBUG\VC140.IDB
D:\SWINBURNE\SEMESTER4\GAMES_PROGRAMMING\MYFOLDER\WEEK1\SPIKE4\SIMPLE GAME LOOP\SIMPLE GAME LOOP\DEBUG\GRIDWORLD.OBJ
D:\SWINBURNE\SEMESTER4\GAMES_PROGRAMMING\MYFOLDER\WEEK1\SPIKE4\SIMPLE GAME LOOP\SIMPLE GAME LOOP\DEBUG\MAIN.OBJ
